<?xml version="1.0" encoding="utf-8"?>
<!-- Generator: Adobe Illustrator 22.0.0, SVG Export Plug-In . SVG Version: 6.00 Build 0)  -->
<svg version="1.1" id="图层_1" xmlns="http://www.w3.org/2000/svg" xmlns:xlink="http://www.w3.org/1999/xlink" x="0px" y="0px"
	 viewBox="0 0 48 48" style="enable-background:new 0 0 48 48;" xml:space="preserve">
<style type="text/css">
	.st0{fill:none;stroke:#333333;stroke-width:3.6779;stroke-linecap:round;stroke-linejoin:round;}
	.st1{fill:#333333;}
</style>
<title>画板 3 副本 2</title>
<polyline class="st0" points="8.8,33.5 31.1,33.5 31.1,7.5 8.8,7.5 8.8,16 17.5,16 "/>
<polyline class="st0" points="31.1,33.5 44.1,33.5 44.1,23.7 36.7,15.7 31.1,15.7 "/>
<line class="st0" x1="17.5" y1="24.5" x2="3.9" y2="24.5"/>
<path class="st1" d="M13.9,36.5c-1.6,0-2.9,1.3-2.9,2.9c0,1.6,1.3,2.9,2.9,2.9c1.6,0,2.9-1.3,2.9-2.9C16.8,37.9,15.5,36.5,13.9,36.5
	C13.9,36.5,13.9,36.5,13.9,36.5z"/>
<path class="st1" d="M35.6,36.5c-1.6,0-2.9,1.3-2.9,2.9c0,1.6,1.3,2.9,2.9,2.9c1.6,0,2.9-1.3,2.9-2.9C38.5,37.9,37.2,36.5,35.6,36.5
	C35.6,36.5,35.6,36.5,35.6,36.5z"/>
</svg>
