<?xml version="1.0" encoding="utf-8"?>
<!-- Generator: Adobe Illustrator 22.0.0, SVG Export Plug-In . SVG Version: 6.00 Build 0)  -->
<svg version="1.1" id="图层_1" xmlns="http://www.w3.org/2000/svg" xmlns:xlink="http://www.w3.org/1999/xlink" x="0px" y="0px"
	 viewBox="0 0 48 48" style="enable-background:new 0 0 48 48;" xml:space="preserve">
<style type="text/css">
	.st0{fill:none;stroke:#333333;stroke-width:4;stroke-linecap:round;stroke-linejoin:round;}
</style>
<title>画板 3 副本 18</title>
<path class="st0" d="M7,4.5H41c1.4,0,2.5,1.1,2.5,2.5V41c0,1.4-1.1,2.5-2.5,2.5H7c-1.4,0-2.5-1.1-2.5-2.5V7C4.5,5.6,5.6,4.5,7,4.5z"
	/>
<line class="st0" x1="10.9" y1="30.1" x2="24.9" y2="30.1"/>
<polyline class="st0" points="30.5,25 35.8,30.3 30.8,35.3 "/>
<line class="st0" x1="37.1" y1="17.9" x2="21.1" y2="17.9"/>
<polyline class="st0" points="16.4,23 11.1,17.7 16.1,12.7 "/>
</svg>
