<?xml version="1.0" encoding="utf-8"?>
<!-- Generator: Adobe Illustrator 22.0.0, SVG Export Plug-In . SVG Version: 6.00 Build 0)  -->
<svg version="1.1" id="图层_1" xmlns="http://www.w3.org/2000/svg" xmlns:xlink="http://www.w3.org/1999/xlink" x="0px" y="0px"
	 viewBox="0 0 48 48" style="enable-background:new 0 0 48 48;" xml:space="preserve">
<style type="text/css">
	.st0{fill:none;stroke:#333333;stroke-width:2;stroke-linecap:round;stroke-linejoin:round;}
</style>
<title>画板 3 副本 16</title>
<polyline class="st0" points="45.5,17.1 45.5,44.1 2.5,44.1 2.5,3.9 29.4,3.9 "/>
<polyline class="st0" points="12.8,21.3 23.5,31.6 45.5,4.1 "/>
</svg>
