<?xml version="1.0" encoding="utf-8"?>
<!-- Generator: Adobe Illustrator 22.0.0, SVG Export Plug-In . SVG Version: 6.00 Build 0)  -->
<svg version="1.1" id="图层_1" xmlns="http://www.w3.org/2000/svg" xmlns:xlink="http://www.w3.org/1999/xlink" x="0px" y="0px"
	 viewBox="0 0 48 48" style="enable-background:new 0 0 48 48;" xml:space="preserve">
<style type="text/css">
	.st0{fill:none;stroke:#333333;stroke-width:2;stroke-linecap:round;stroke-linejoin:round;}
</style>
<title>画板 3 副本 12</title>
<g>
	<path class="st0" d="M39.3,16v25.6c0,1.8-1.5,3.3-3.3,3.3c0,0,0,0,0,0c-2.9,0-6.7-0.1-6.7,0.1H11.2c-1.8,0-3.3-1.5-3.3-3.3V6.3
		C7.9,4.5,9.3,3,11.2,3H26"/>
	<path class="st0" d="M32,3h4c1.8,0,3.3,1.5,3.3,3.3V10"/>
	<line class="st0" x1="15.6" y1="15.8" x2="31.5" y2="15.8"/>
	<line class="st0" x1="15.6" y1="24" x2="24.7" y2="24"/>
	<line class="st0" x1="15.6" y1="32.2" x2="27.7" y2="32.2"/>
</g>
</svg>
